<svg xmlns="http://www.w3.org/2000/svg" viewBox="0 0 16 16">
 <g transform="translate(0,-1036.3622)">
  <rect width="12" height="9" x="2" transform="translate(0,1036.3622)" style="fill:#eae7d1;fill-opacity:1;stroke:none"/>
  <rect width="8" height="1" x="4" y="1041.36" style="fill:#7a7a68;fill-opacity:1;stroke:none"/>
  <path d="m 16 1042.36 0 10 -16 0 0 -9 7 0 1 -2 7 0 c 0.5 0 1 0.5 1 1 z" style="fill:#9b43a8;fill-opacity:1;stroke:none"/>
  <path d="m 0 1051.36 0 1 16 0 0 -1 z" style="fill:#000;opacity:0.15;fill-opacity:1;stroke:none"/>
  <path d="M 8,5 7,7 0,7 0,8 8,8 9,6 15,6 c 0.5,0 1,0.5 1,1 L 16,6 C 16,5.5 15.5,5 15,5 z" transform="translate(0,1036.3622)" style="fill:#000;opacity:0.03;fill-opacity:1;stroke:none"/>
  <rect width="8" height="1" x="4" y="1037.36" style="fill:#7a7a68;fill-opacity:1;stroke:none"/>
  <rect y="1039.36" x="4" height="1" width="8" style="fill:#7a7a68;fill-opacity:1;stroke:none"/>
 </g>
</svg>
