<svg xmlns="http://www.w3.org/2000/svg" width="20" height="37">
 <defs>
  <clipPath>
   <rect y="1015.36" x="20" height="37" width="20" opacity="0.12" fill="#9b43a8" color="#C4C4C4"/>
  </clipPath>
  <clipPath>
   <rect y="1033.36" x="20" height="19" width="10" opacity="0.12" fill="#9b43a8" color="#C4C4C4"/>
  </clipPath>
 </defs>
 <g transform="translate(0,-1015.3622)">
  <path d="m 10,1028.3622 c -1.108,0 -2,0.669 -2,1.5 l 0,9 c 0,0.831 0.892,1.5 2,1.5 l 4,0 c 1.108,0 2,-0.669 2,-1.5 l 0,-9 c 0,-0.831 -0.892,-1.5 -2,-1.5 l -4,0 z m 0,2 4,0 0,8 -4,0 0,-8 z" fill="#C4C4C4"/>
 </g>
</svg>
